Week 10 · Novelty Functions and Tempograms
…
        compmus_summarise, pitches,
        method = "mean", na.rm = TRUE
      ),
    timbre =
      map(
        segments,
        compmus_summarise, timbre,
        method = "mean", na.rm = TRUE
      )
  ) %>%
  mutate_at(vars(pitches, timbre), map, bind_rows) %>%
  unnest(cols = c(pitches, timbre))
indie_deltas

## # A tibble: 60 x 99
##    playlist_id  playlist_name playlist_img     playlist_owner_… playlist_owner_…
##    <chr>        <chr>         <chr>            <chr>            <chr>           
##  1 37i9dQZF1DW… Indie Pop     https://i.scdn.… Spotify          spotify         
##  2 37i9dQZF1DW… Indie Pop     https://i.scdn.… Spotify          spotify         
##  3 37i9dQZF1DW… Indie Pop     https://i.scdn.… Spotify          spotify         
##  4 37i9dQZF1DW… Indie Pop     https://i.scdn.… Spotify          spotify         
##  5 37i9dQZF1DW… Indie Pop     https://i.scdn.… Spotify          spotify         
##  6 37i9dQZF1DW… Indie Pop     https://i.scdn.… Spotify          spotify         
##  7 37i9dQZF1DW… Indie Pop     https://i.scdn.… Spotify          spotify         
##  8 37i9dQZF1DW… Indie Pop     https://i.scdn.… Spotify          spotify         
##  9 37i9dQZF1DW… Indie Pop     https://i.scdn.… Spotify          spotify         
## 10 37i9dQZF1DW… Indie Pop     https://i.scdn.… Spotify          spotify         
## # … with 50 more rows, and 94 more variables: danceability <dbl>, energy <dbl>,
## #   key <int>, loudness <dbl>, mode <int>, speechiness <dbl>,
## #   acousticness <dbl>, instrumentalness <dbl>, liveness <dbl>, valence <dbl>,
## #   tempo <dbl>, track.id <chr>, analysis_url <chr>, time_signature <int>,
## #   added_at <chr>, is_local <lgl>, primary_color <lgl>, added_by.href <chr>,
## #   added_by.id <chr>, added_by.type <chr>, added_by.uri <chr>,
## #   added_by.external_urls.spotify <chr>, track.artists <list>,
## #   track.available_markets <list>, track.disc_number <int>,
## #   track.duration_ms <int>, track.episode <lgl>, track.explicit <lgl>,
…
